<?xml version='1.0' encoding='UTF-8'?>
<glyph name="AE" format="2">
  <advance width="929"/>
  <unicode hex="00C6"/>
  <outline>
    <contour>
      <point x="-25" y="0" type="line"/>
      <point x="221" y="0" type="line"/>
      <point x="221" y="26" type="line"/>
      <point x="144" y="34"/>
      <point x="129" y="87"/>
      <point x="169" y="156" type="curve" smooth="yes"/>
      <point x="446" y="638" type="line"/>
      <point x="446" y="49" type="line"/>
      <point x="544" y="49" type="line"/>
      <point x="544" y="700" type="line"/>
      <point x="308" y="700" type="line"/>
      <point x="308" y="673" type="line"/>
      <point x="360" y="671"/>
      <point x="390" y="651"/>
      <point x="361" y="602" type="curve" smooth="yes"/>
      <point x="84" y="129" type="line" smooth="yes"/>
      <point x="51" y="73"/>
      <point x="0" y="30"/>
      <point x="-25" y="27" type="curve"/>
    </contour>
    <contour>
      <point x="192" y="215" type="line"/>
      <point x="460" y="215" type="line"/>
      <point x="460" y="268" type="line"/>
      <point x="192" y="268" type="line"/>
    </contour>
    <contour>
      <point x="368" y="0" type="line"/>
      <point x="886" y="0" type="line"/>
      <point x="909" y="173" type="line"/>
      <point x="883" y="177" type="line"/>
      <point x="855" y="88"/>
      <point x="794" y="53"/>
      <point x="665" y="53" type="curve" smooth="yes"/>
      <point x="571" y="53"/>
      <point x="544" y="95"/>
      <point x="544" y="141" type="curve"/>
      <point x="446" y="141" type="line"/>
      <point x="446" y="55"/>
      <point x="415" y="36"/>
      <point x="368" y="25" type="curve"/>
    </contour>
    <contour>
      <point x="727" y="237" type="curve"/>
      <point x="754" y="237" type="line"/>
      <point x="754" y="485" type="line"/>
      <point x="727" y="485" type="line"/>
      <point x="719" y="429"/>
      <point x="697" y="388"/>
      <point x="611" y="388" type="curve" smooth="yes"/>
      <point x="529" y="388" type="line"/>
      <point x="529" y="335" type="line"/>
      <point x="611" y="335" type="line" smooth="yes"/>
      <point x="697" y="335"/>
      <point x="718" y="297"/>
    </contour>
    <contour>
      <point x="863" y="513" type="curve"/>
      <point x="889" y="520" type="line"/>
      <point x="863" y="700" type="line"/>
      <point x="509" y="700" type="line"/>
      <point x="509" y="647" type="line"/>
      <point x="676" y="647" type="line" smooth="yes"/>
      <point x="764" y="647"/>
      <point x="822" y="605"/>
    </contour>
  </outline>
  <lib>
    <dict>
      <key>com.schriftgestaltung.Glyphs.lastChange</key>
      <string>2022-07-07 09:35:12 +0000</string>
      <key>com.schriftgestaltung.Glyphs.leftMetricsKey</key>
      <string>A</string>
      <key>com.schriftgestaltung.Glyphs.rightMetricsKey</key>
      <string>E</string>
      <key>public.markColor</key>
      <string>0.04,0.57,0.04,0.5</string>
    </dict>
  </lib>
</glyph>
