<?xml version='1.0' encoding='UTF-8'?>
<glyph name="w" format="2">
  <advance width="763"/>
  <unicode hex="0077"/>
  <note>
w
</note>
  <anchor x="397" y="470" name="top"/>
  <outline>
    <contour>
      <point x="515" y="-9" type="line"/>
      <point x="552" y="-9" type="line"/>
      <point x="699" y="373" type="line" smooth="yes"/>
      <point x="717" y="420"/>
      <point x="751" y="439"/>
      <point x="773" y="443" type="curve"/>
      <point x="773" y="470" type="line"/>
      <point x="580" y="470" type="line"/>
      <point x="580" y="443" type="line"/>
      <point x="621" y="442"/>
      <point x="663" y="426"/>
      <point x="639" y="359" type="curve" smooth="yes"/>
      <point x="540" y="77" type="line"/>
      <point x="572" y="80" type="line"/>
      <point x="462" y="361" type="line" smooth="yes"/>
      <point x="437" y="424"/>
      <point x="485" y="442"/>
      <point x="518" y="443" type="curve"/>
      <point x="518" y="470" type="line"/>
      <point x="283" y="470" type="line"/>
      <point x="283" y="443" type="line"/>
      <point x="318" y="438"/>
      <point x="339" y="420"/>
      <point x="361" y="366" type="curve" smooth="yes"/>
    </contour>
    <component base="boutw" xOffset="-15"/>
  </outline>
  <lib>
    <dict>
      <key>com.schriftgestaltung.Glyphs.lastChange</key>
      <string>2024-06-25 14:20:57 +0000</string>
      <key>com.schriftgestaltung.Glyphs.leftMetricsKey</key>
      <string>v</string>
      <key>com.schriftgestaltung.Glyphs.rightMetricsKey</key>
      <string>v</string>
      <key>public.markColor</key>
      <string>0.04,0.57,0.04,0.5</string>
    </dict>
  </lib>
</glyph>
