<?xml version='1.0' encoding='UTF-8'?>
<glyph name="e_a" format="2">
  <advance width="892"/>
  <unicode hex="F1910"/>
  <outline>
    <contour>
      <point x="244" y="-13" type="curve" smooth="yes"/>
      <point x="312" y="-13"/>
      <point x="370" y="21"/>
      <point x="412" y="66" type="curve"/>
      <point x="426" y="17"/>
      <point x="476" y="-14"/>
      <point x="535" y="-14" type="curve" smooth="yes"/>
      <point x="613" y="-14"/>
      <point x="671" y="31"/>
      <point x="707" y="69" type="curve"/>
      <point x="704" y="115" type="line"/>
      <point x="682" y="92"/>
      <point x="652" y="61"/>
      <point x="620" y="61" type="curve" smooth="yes"/>
      <point x="586" y="61"/>
      <point x="563" y="86"/>
      <point x="563" y="118" type="curve" smooth="yes"/>
      <point x="563" y="159"/>
      <point x="595" y="182"/>
      <point x="644" y="197" type="curve" smooth="yes"/>
      <point x="705" y="216" type="line"/>
      <point x="705" y="264" type="line"/>
      <point x="562" y="225" type="line" smooth="yes"/>
      <point x="494" y="206"/>
      <point x="424" y="174"/>
      <point x="411" y="115" type="curve"/>
      <point x="380" y="92"/>
      <point x="349" y="77"/>
      <point x="318" y="77" type="curve" smooth="yes"/>
      <point x="241" y="77"/>
      <point x="177" y="133"/>
      <point x="168" y="259" type="curve"/>
      <point x="453" y="259" type="line"/>
      <point x="453" y="362"/>
      <point x="410" y="494"/>
      <point x="269" y="494" type="curve" smooth="yes"/>
      <point x="136" y="494"/>
      <point x="25" y="364"/>
      <point x="25" y="223" type="curve" smooth="yes"/>
      <point x="25" y="83"/>
      <point x="129" y="-13"/>
    </contour>
    <contour>
      <point x="167" y="304" type="line"/>
      <point x="171" y="370"/>
      <point x="196" y="438"/>
      <point x="242" y="438" type="curve" smooth="yes"/>
      <point x="287" y="438"/>
      <point x="305" y="362"/>
      <point x="305" y="304" type="curve"/>
    </contour>
    <contour>
      <point x="470" y="440" type="curve"/>
      <point x="489" y="395" type="line"/>
      <point x="531" y="414"/>
      <point x="573" y="422"/>
      <point x="605" y="422" type="curve" smooth="yes"/>
      <point x="660" y="422"/>
      <point x="664" y="390"/>
      <point x="664" y="314" type="curve" smooth="yes"/>
      <point x="664" y="63" type="line" smooth="yes"/>
      <point x="664" y="11"/>
      <point x="703" y="-14"/>
      <point x="747" y="-14" type="curve" smooth="yes"/>
      <point x="801" y="-14"/>
      <point x="849" y="21"/>
      <point x="887" y="55" type="curve"/>
      <point x="872" y="80" type="line"/>
      <point x="860" y="72"/>
      <point x="846" y="66"/>
      <point x="834" y="66" type="curve" smooth="yes"/>
      <point x="822" y="66"/>
      <point x="812" y="73"/>
      <point x="812" y="93" type="curve" smooth="yes"/>
      <point x="812" y="359" type="line" smooth="yes"/>
      <point x="812" y="441"/>
      <point x="751" y="494"/>
      <point x="666" y="494" type="curve" smooth="yes"/>
      <point x="613" y="494"/>
      <point x="555" y="484"/>
    </contour>
  </outline>
  <lib>
    <dict>
      <key>com.schriftgestaltung.Glyphs.lastChange</key>
      <string>2022-07-07 08:50:59 +0000</string>
      <key>com.schriftgestaltung.Glyphs.leftMetricsKey</key>
      <string>e</string>
      <key>com.schriftgestaltung.Glyphs.rightMetricsKey</key>
      <string>a</string>
      <key>public.markColor</key>
      <string>0.04,0.57,0.04,0.5</string>
    </dict>
  </lib>
</glyph>
