<?xml version='1.0' encoding='UTF-8'?>
<glyph name="Idieresis" format="2">
  <advance width="353"/>
  <unicode hex="00CF"/>
  <outline>
    <component base="I"/>
    <component base="dieresiscomb.case" xOffset="12" yOffset="155"/>
  </outline>
  <lib>
    <dict>
      <key>com.schriftgestaltung.Glyphs.lastChange</key>
      <string>2022-07-11 12:56:29 +0000</string>
      <key>public.markColor</key>
      <string>0.04,0.57,0.04,0.5</string>
    </dict>
  </lib>
</glyph>
