<?xml version='1.0' encoding='UTF-8'?>
<glyph name="f_f_k" format="2">
  <advance width="944"/>
  <outline>
    <contour>
      <point x="98" y="-217" type="curve" smooth="yes"/>
      <point x="166" y="-217"/>
      <point x="280" y="-107"/>
      <point x="306" y="-22" type="curve" smooth="yes"/>
      <point x="357" y="145"/>
      <point x="422" y="402"/>
      <point x="459" y="549" type="curve" smooth="yes"/>
      <point x="471" y="598"/>
      <point x="490" y="653"/>
      <point x="499" y="670" type="curve"/>
      <point x="542" y="685"/>
      <point x="578" y="673"/>
      <point x="651" y="642" type="curve"/>
      <point x="683" y="717" type="line"/>
      <point x="638" y="737"/>
      <point x="612" y="744"/>
      <point x="586" y="744" type="curve" smooth="yes"/>
      <point x="529" y="744"/>
      <point x="402" y="649"/>
      <point x="378" y="545" type="curve"/>
      <point x="349" y="392"/>
      <point x="283" y="155"/>
      <point x="237" y="-7" type="curve" smooth="yes"/>
      <point x="213" y="-90"/>
      <point x="183" y="-133"/>
      <point x="165" y="-155" type="curve"/>
      <point x="145" y="-164"/>
      <point x="60" y="-153"/>
      <point x="1" y="-105" type="curve"/>
      <point x="-37" y="-179" type="line"/>
      <point x="0" y="-203"/>
      <point x="75" y="-217"/>
    </contour>
    <contour>
      <point x="-139" y="-262" type="curve" smooth="yes"/>
      <point x="-71" y="-262"/>
      <point x="43" y="-107"/>
      <point x="69" y="-22" type="curve" smooth="yes"/>
      <point x="120" y="145"/>
      <point x="185" y="402"/>
      <point x="222" y="549" type="curve" smooth="yes"/>
      <point x="234" y="598"/>
      <point x="250" y="643"/>
      <point x="259" y="660" type="curve"/>
      <point x="302" y="675"/>
      <point x="378" y="661"/>
      <point x="430" y="617" type="curve"/>
      <point x="477" y="687" type="line"/>
      <point x="430" y="712"/>
      <point x="370" y="726"/>
      <point x="344" y="726" type="curve" smooth="yes"/>
      <point x="287" y="726"/>
      <point x="165" y="649"/>
      <point x="141" y="545" type="curve"/>
      <point x="112" y="392"/>
      <point x="46" y="155"/>
      <point x="0" y="-7" type="curve" smooth="yes"/>
      <point x="-24" y="-90"/>
      <point x="-56" y="-158"/>
      <point x="-72" y="-180" type="curve"/>
      <point x="-92" y="-189"/>
      <point x="-126" y="-185"/>
      <point x="-185" y="-163" type="curve"/>
      <point x="-220" y="-243" type="line"/>
      <point x="-196" y="-253"/>
      <point x="-164" y="-262"/>
    </contour>
    <contour>
      <point x="509" y="437" type="line"/>
      <point x="534" y="480" type="line"/>
      <point x="529" y="499" type="line"/>
      <point x="162" y="491" type="line"/>
      <point x="67" y="472" type="line"/>
      <point x="68" y="455" type="line"/>
      <point x="134" y="448" type="line"/>
    </contour>
    <contour>
      <point x="489" y="-14" type="line"/>
      <point x="546" y="14" type="line"/>
      <point x="748" y="724" type="line"/>
      <point x="728" y="738" type="line"/>
      <point x="670" y="711" type="line"/>
      <point x="463" y="12" type="line"/>
    </contour>
    <contour>
      <point x="751" y="-14" type="curve"/>
      <point x="785" y="21"/>
      <point x="828" y="69"/>
      <point x="898" y="128" type="curve"/>
      <point x="886" y="146" type="line"/>
      <point x="844" y="118"/>
      <point x="811" y="98"/>
      <point x="794" y="86" type="curve"/>
      <point x="771" y="100"/>
      <point x="732" y="157"/>
      <point x="714" y="205" type="curve"/>
      <point x="811" y="245"/>
      <point x="926" y="324"/>
      <point x="926" y="381" type="curve" smooth="yes"/>
      <point x="926" y="430"/>
      <point x="884" y="499"/>
      <point x="843" y="499" type="curve" smooth="yes"/>
      <point x="797" y="499"/>
      <point x="696" y="374"/>
      <point x="598" y="233" type="curve"/>
      <point x="571" y="154" type="line"/>
      <point x="676" y="293"/>
      <point x="774" y="396"/>
      <point x="804" y="424" type="curve"/>
      <point x="817" y="419"/>
      <point x="838" y="389"/>
      <point x="838" y="357" type="curve" smooth="yes"/>
      <point x="838" y="311"/>
      <point x="746" y="248"/>
      <point x="645" y="215" type="curve"/>
      <point x="660" y="99"/>
      <point x="688" y="42"/>
    </contour>
  </outline>
  <lib>
    <dict>
      <key>com.schriftgestaltung.Glyphs.lastChange</key>
      <string>2022-07-11 12:39:34 +0000</string>
      <key>com.schriftgestaltung.Glyphs.leftMetricsKey</key>
      <string>f</string>
      <key>com.schriftgestaltung.Glyphs.rightMetricsKey</key>
      <string>k</string>
      <key>public.markColor</key>
      <string>0.04,0.57,0.04,0.5</string>
    </dict>
  </lib>
</glyph>
