<?xml version='1.0' encoding='UTF-8'?>
<glyph name="ffut" format="2">
  <advance width="600"/>
  <outline>
  </outline>
  <lib>
    <dict>
      <key>com.schriftgestaltung.Glyphs.lastChange</key>
      <string>2022-06-10 09:19:25 +0000</string>
    </dict>
  </lib>
</glyph>
