<?xml version='1.0' encoding='UTF-8'?>
<glyph name="Ygrave" format="2">
  <advance width="629"/>
  <unicode hex="1EF2"/>
  <outline>
    <component base="Y"/>
    <component base="gravecomb.case" xOffset="210" yOffset="150"/>
  </outline>
  <lib>
    <dict>
      <key>com.schriftgestaltung.Glyphs.lastChange</key>
      <string>2022-07-07 10:31:12 +0000</string>
      <key>public.markColor</key>
      <string>0.04,0.57,0.04,0.5</string>
    </dict>
  </lib>
</glyph>
