<?xml version='1.0' encoding='UTF-8'?>
<glyph name="T" format="2">
  <advance width="677"/>
  <unicode hex="0054"/>
  <anchor x="403" y="0" name="bottom"/>
  <anchor x="461" y="700" name="top"/>
  <outline>
    <contour>
      <point x="94" y="0" type="line"/>
      <point x="440" y="0" type="line"/>
      <point x="442" y="18" type="line"/>
      <point x="342" y="38" type="line"/>
      <point x="538" y="700" type="line"/>
      <point x="400" y="700" type="line"/>
      <point x="205" y="41" type="line"/>
      <point x="95" y="16" type="line"/>
    </contour>
    <contour>
      <point x="697" y="482" type="line"/>
      <point x="715" y="482" type="line"/>
      <point x="774" y="732" type="line"/>
      <point x="757" y="739" type="line"/>
      <point x="674" y="700" type="line"/>
      <point x="235" y="700" type="line"/>
      <point x="173" y="730" type="line"/>
      <point x="155" y="728" type="line"/>
      <point x="86" y="495" type="line"/>
      <point x="103" y="489" type="line"/>
      <point x="236" y="658" type="line"/>
      <point x="660" y="658" type="line"/>
    </contour>
  </outline>
  <lib>
    <dict>
      <key>com.schriftgestaltung.Glyphs.lastChange</key>
      <string>2022-07-11 11:14:40 +0000</string>
      <key>public.markColor</key>
      <string>0.04,0.57,0.04,0.5</string>
    </dict>
  </lib>
</glyph>
