<?xml version='1.0' encoding='UTF-8'?>
<glyph name="u" format="2">
  <advance width="595"/>
  <unicode hex="0075"/>
  <note>
u
</note>
  <guideline x="525" y="509"/>
  <anchor x="196" y="0" name="bottom"/>
  <anchor x="352" y="480" name="top"/>
  <outline>
    <contour>
      <point x="76" y="-14" type="curve" smooth="yes"/>
      <point x="144" y="-14"/>
      <point x="290" y="132"/>
      <point x="419" y="326" type="curve"/>
      <point x="410" y="358" type="line"/>
      <point x="369" y="298"/>
      <point x="231" y="117"/>
      <point x="165" y="78" type="curve"/>
      <point x="200" y="176"/>
      <point x="265" y="343"/>
      <point x="286" y="466" type="curve"/>
      <point x="193" y="509" type="line"/>
      <point x="153" y="475"/>
      <point x="126" y="446"/>
      <point x="52" y="384" type="curve"/>
      <point x="64" y="364" type="line"/>
      <point x="103" y="392"/>
      <point x="127" y="406"/>
      <point x="156" y="427" type="curve"/>
      <point x="139" y="319"/>
      <point x="27" y="95"/>
      <point x="27" y="29" type="curve" smooth="yes"/>
      <point x="27" y="5"/>
      <point x="47" y="-14"/>
    </contour>
    <contour>
      <point x="511" y="326" type="curve" smooth="yes"/>
      <point x="540" y="426"/>
      <point x="550" y="461"/>
      <point x="554" y="498" type="curve"/>
      <point x="544" y="509" type="line"/>
      <point x="433" y="479" type="line"/>
      <point x="420" y="427" type="line" smooth="yes"/>
      <point x="413" y="399"/>
      <point x="379" y="284"/>
      <point x="363" y="232" type="curve" smooth="yes"/>
      <point x="351" y="192"/>
      <point x="293" y="40"/>
      <point x="296" y="28" type="curve" smooth="yes"/>
      <point x="300" y="11"/>
      <point x="372" y="-14"/>
      <point x="402" y="-14" type="curve"/>
      <point x="437" y="19"/>
      <point x="487" y="64"/>
      <point x="544" y="112" type="curve"/>
      <point x="535" y="127" type="line"/>
      <point x="491" y="104"/>
      <point x="463" y="89"/>
      <point x="435" y="67" type="curve"/>
      <point x="447" y="119"/>
      <point x="485" y="239"/>
    </contour>
  </outline>
  <lib>
    <dict>
      <key>com.schriftgestaltung.Glyphs.lastChange</key>
      <string>2022-07-11 12:36:54 +0000</string>
      <key>com.schriftgestaltung.Glyphs.leftMetricsKey</key>
      <string>=|n</string>
      <key>com.schriftgestaltung.Glyphs.rightMetricsKey</key>
      <string>n</string>
      <key>public.markColor</key>
      <string>0.04,0.57,0.04,0.5</string>
    </dict>
  </lib>
</glyph>
